<?xml version="1.0" encoding="utf-8"?>
<!-- Generator: Adobe Illustrator 24.0.3, SVG Export Plug-In . SVG Version: 6.00 Build 0)  -->
<svg version="1.1" id="Laag_1" xmlns="http://www.w3.org/2000/svg" xmlns:xlink="http://www.w3.org/1999/xlink" x="0px" y="0px"
	 viewBox="0 0 64 64" style="enable-background:new 0 0 64 64;" xml:space="preserve">
<style type="text/css">
	.st0{fill:#666666;}
</style>
<g id="_x31_3">
	<path class="st0" d="M63.5,14c-1.5-2.2-4.2-3.1-6.8-2.3l-1.7,0.7c-0.3-0.6-0.8-1-1.3-1.2c-0.5-0.2-1.4-0.3-2.5,0.7
		c-7.5,6.6-20.6,3.4-28.4,1.5c-4.2-1-6.3-1.5-7.4-1c-1.3,0.6-2.1,1.6-2.5,2.6C9,14.1,6.9,13,6.9,13c-0.3-0.2-3.2-1.9-5.2-0.8
		C0.6,12.8,0,13.9,0,15.6c-0.1,3.8,2.6,5.7,5.3,7.6c2.4,1.7,4.9,3.5,6.3,6.7c0.6,1.3,1.1,3.1,1.7,5c2.2,7.2,5.5,17.8,15.9,17.8
		c1.3,0,2.7-0.2,4.2-0.5c10-2.3,12.3-8.8,14.2-14c1.2-3.4,2.2-6.1,4.9-7.1c5.6-1.9,9.3-7.5,10.7-11.7C63.8,18.1,64.5,15.4,63.5,14z
		 M16.2,14.4c0.1,0,0.2,0,0.4,0c1,0,3.5,0.6,5.7,1.1c8.2,2,22,5.4,30.3-2c0.3-0.2,0.4-0.3,0.5-0.2c0.1,0,0.2,0.2,0.3,0.7
		c0.2,1.2-0.3,4.2-4,7.3c-5.6,4.8-22,5.7-30.1,3c-2.5-0.8-4-1.9-4.3-3.1l-0.1-0.3C14.3,18.2,14,15.5,16.2,14.4z M31,34.2
		c2.7,0,5,2.1,5.3,4.7H25.8C26.1,36.3,28.3,34.2,31,34.2z M61.3,18.8c-1.4,4.1-4.8,8.8-9.4,10.4c-3.7,1.3-4.9,4.7-6.2,8.3
		c-1.8,5-3.8,10.6-12.7,12.6C21,53,17.9,42.6,15.3,34.4c-0.6-1.9-1.1-3.7-1.8-5.2c-1.6-3.8-4.5-5.8-7-7.6c-2.9-2.1-4.5-3.3-4.5-5.9
		c0-0.6,0.1-1.4,0.6-1.6c0.7-0.4,2.3,0.2,3.2,0.8c0.1,0.1,2.4,1.3,6.5,2.5c-0.1,1.6,0.3,3.2,0.5,4.1l0.1,0.3c0.4,2,2.3,3.6,5.7,4.7
		c3,1,7.1,1.6,11.4,1.6v4.2c-3.4,0.5-6,3.3-6.3,6.7h-2V41h18.7v-2.1h-2c-0.3-3.5-2.9-6.2-6.3-6.7v-4.3c1.1,0,2.3-0.1,3.4-0.2
		c4-0.3,11.3-1.4,15.2-4.8c3.5-3,4.8-6.1,4.8-8.3l1.9-0.9c1.6-0.5,3.4,0.1,4.3,1.5C61.9,15.5,62.1,16.7,61.3,18.8z"/>
</g>
<g id="Layer_1">
</g>
</svg>
